<svg width="31" height="32" viewBox="0 0 31 32" fill="none" xmlns="http://www.w3.org/2000/svg">
<path d="M17.8158 8.95212C16.5599 9.92671 15.3266 10.9289 14.1988 11.9261C8.59495 16.8845 1.96626 28.2982 0.0095522 31.7821C-0.00499691 31.8227 -0.00285734 31.8674 0.0155006 31.9065C0.0338585 31.9456 0.0669443 31.9758 0.107517 31.9905C0.132967 31.9995 0.160229 32.0022 0.186931 31.9982C0.213633 31.9943 0.238965 31.9839 0.260734 31.9679C2.27019 29.7073 4.91514 25.4196 4.91514 25.4196C6.4344 25.2438 7.92858 24.8949 9.36859 24.3797C9.41716 24.3616 9.45657 24.3251 9.47823 24.278C9.49988 24.2309 9.50202 24.1772 9.48414 24.1285C9.48123 24.1168 9.47612 24.1057 9.46907 24.0959C8.97771 23.3177 8.2828 22.6888 7.45962 22.2773C7.86653 22.0261 9.89357 22.4733 11.2726 22.8525C11.535 22.9255 11.81 22.9419 12.0793 22.9008C12.3486 22.8597 12.6062 22.7619 12.8349 22.6139C14.656 21.4183 16.6026 19.7555 19.1145 17.4044C22.0935 14.6062 25.0424 10.2985 27.2502 6.66888C27.2685 6.63722 27.2734 6.59962 27.264 6.56431C27.2546 6.52901 27.2316 6.49887 27.2 6.48049C27.1735 6.46484 27.1425 6.45864 27.1121 6.46291C25.5096 6.69651 24.0075 5.80984 24.0075 5.80984C24.5902 5.95804 25.8135 5.92538 26.7479 5.87263C27.0623 5.85482 27.3674 5.7595 27.6361 5.59515C27.9048 5.4308 28.1286 5.20253 28.2876 4.9307C29.9504 2.09235 30.9929 0 30.9929 0C26.446 2.74998 22.0475 5.73818 17.8158 8.95212Z" fill="url(#paint0_linear)"/>
<defs>
<linearGradient id="paint0_linear" x1="0.371256" y1="31.345" x2="30.6638" y2="0.266243" gradientUnits="userSpaceOnUse">
<stop stop-color="#5A69C2"/>
<stop offset="1" stop-color="#000133"/>
</linearGradient>
</defs>
</svg>
