<svg width="14" height="21" viewBox="0 0 14 21" fill="none" xmlns="http://www.w3.org/2000/svg">
<path d="M6.65991 13.936L6.79623 14.0721L13.0372 10.383L6.79623 0.027771L6.65991 0.491105V13.936Z" fill="#C94778"/>
<path d="M6.79687 14.0721V0.027771L0.555908 10.383L6.79687 14.0721Z" fill="#D986A7"/>
<path d="M6.71973 20.1367L6.79654 20.3611L13.0413 11.5666L6.79659 15.2537L6.71978 15.3474L6.71973 20.1367Z" fill="#C94779"/>
<path d="M0.555664 11.5665L6.79662 20.361V15.2536L0.555664 11.5665Z" fill="#DA85A8"/>
<path d="M6.79639 7.54642V14.0721L13.0373 10.3831L6.79639 7.54642Z" fill="#5E1B34"/>
<path d="M6.79653 7.54642L0.555664 10.383L6.79653 14.072V7.54642Z" fill="#C84779"/>
</svg>
